<?xml version="1.0" encoding="UTF-8"?>
<svg id="svg2" width="85" height="27" version="1.1" xmlns="http://www.w3.org/2000/svg" xmlns:xlink="http://www.w3.org/1999/xlink">
 <g id="layer1" transform="translate(0 -1025.4)">
  <text id="text4544-4-6" x="656.00214" y="698.00629" fill="#000000" font-family="'Linux Biolinum'" letter-spacing="0px" text-align="center" text-anchor="middle" word-spacing="0px" style="line-height:0%" xml:space="preserve"><tspan id="tspan3467-2-6" x="666.07996" y="698.00629" font-size="80.623px" style="line-height:1.25"> </tspan></text>
  <text id="text3876" x="-102.61524" y="451.20035" fill="#000000" font-family="sans-serif" letter-spacing="0px" stroke-width="1px" word-spacing="0px" style="line-height:0%" xml:space="preserve"><tspan id="tspan3878" x="-102.61524" y="451.20035" font-size="12.5px" style="line-height:1.25">-</tspan></text>
  <g id="g4341" transform="translate(-65.828 -5.6147)">
   <g id="g3867" transform="translate(-404.64 -105.31)">
    <g id="Camada_x0020_1" transform="matrix(.010822 0 0 .010822 472.99 1108.8)" fill-rule="evenodd">
     <g id="_243006560" transform="translate(771.34 -1394.3)">
      <g id="g517" transform="matrix(.60771 0 0 .60771 -826.9 3985.6)" fill="#b3b3b3">
       <polygon id="polygon11" class="fil0" points="6027 1560 6027 3862 6756 3862 6756 2169 7983 2169 7983 1560"/>
       <path id="path13" class="fil0" d="m2465 0v2228c0 658-210 1089-802 1089s-802-431-802-1089v-2228h-774v2466c0 1034 586 1460 1576 1460s1575-426 1575-1460v-1858h894v3251h774v-3251h3080v-608h-5522z"/>
       <polygon id="polygon54" class="fil2" points="5082 3862 5082 769 7983 769 7983 1378 5857 1378 5857 3862"/>
       <path id="path56" class="fil1" d="m8295 3856v-2301h745c282 0 467 12 552 35 132 34 243 109 332 225s133 265 133 448c0 141-26 260-77 356s-116 172-196 227c-79 55-159 91-241 109-111 22-272 33-482 33h-303v868h-464zm464-1911v652h254c183 0 306-12 367-36 62-24 110-62 145-113s52-111 52-179c0-84-25-153-74-207s-111-88-186-102c-56-11-167-16-334-16h-224z" fill-rule="nonzero"/>
       <path id="path58-3" class="fil1" d="m10182 3854v-2301h978c246 0 424 21 536 62 111 41 201 115 268 220 67 106 100 227 100 363 0 172-51 316-152 428s-253 183-455 212c101 59 184 123 249 193s153 194 264 373l281 449h-556l-336-501c-119-179-201-291-245-338s-91-78-140-96c-49-17-127-26-234-26h-94v960h-465zm465-1328h343c223 0 362-9 418-28 55-19 99-51 130-97s47-103 47-172c0-78-21-140-62-187-41-48-100-78-175-91-37-5-151-7-339-7h-362v583z" fill-rule="nonzero"/>
      </g>
     </g>
    </g>
   </g>
  </g>
 </g>
</svg>
